{
    "AWSTemplateFormatVersion": "2010-09-09",
    "Parameters" : {
        "Owner": {
            "Description": "Enter Team or Individual Name Responsible for the Stack.",
            "Type": "String",
            "Default": "Roberto Rodriguez"
        },
        "NetworkStackName": {
            "Description": "Name of the active CloudFormation stack that contains the networking resources, such as the subnet and security group, that will be used in this stack.",
            "Type": "String",
            "MinLength" : 1,
            "MaxLength" : 255,
            "AllowedPattern" : "^[a-zA-Z][-a-zA-Z0-9]*$",
            "Default" : "MordorBaseStack"
        },
        "DCStackName": {
            "Description": "Name of the active CloudFormation stack that contains the Domain Controller resources, such as the subnet and security group, that will be used in this stack.",
            "Type": "String",
            "MinLength" : 1,
            "MaxLength" : 255,
            "AllowedPattern" : "^[a-zA-Z][-a-zA-Z0-9]*$",
            "Default" : "MordorWindowsServersStack"
        },
        "KeyName": {
            "Description" : "Name of an existing EC2 key pair for SSH access to the EC2 instance.",
            "Type" : "AWS::EC2::KeyPair::KeyName",
            "ConstraintDescription" : "must be the name of an existing EC2 KeyPair."
        },
        "WECInstanceType" : {
            "Description" : "Windows Event Collector server EC2 instance type.",
            "Type" : "String",
            "Default" : "t2.medium",
            "AllowedValues" : [ "t2.medium", "t2.large", "t2.xlarge", "t2.2xlarge" ]
        },
        "WorkstationInstanceType" : {
            "Description" : "Active directory server EC2 instance type.",
            "Type" : "String",
            "Default" : "t2.medium",
            "AllowedValues" : [ "t2.medium", "t2.large", "t2.xlarge", "t2.2xlarge" ]
        },
        "WECNetBIOSName" : {
            "Description" : "NetBIOS name of the WEC server (up to 15 characters).",
            "Type" : "String",
            "Default" : "WECServer",
            "AllowedPattern" : "[a-zA-Z0-9\\-]+",
            "MaxLength" : "15",
            "MinLength" : "3"
        },
        "HRNetBIOSName" : {
            "Description" : "NetBIOS name of the HR workstation (up to 15 characters).",
            "Type" : "String",
            "Default" : "HR001",
            "AllowedPattern" : "[a-zA-Z0-9\\-]+",
            "MaxLength" : "15",
            "MinLength" : "3"
        },
        "ITNetBIOSName" : {
            "Description" : "NetBIOS name of the IT workstation (up to 15 characters).",
            "Type" : "String",
            "Default" : "IT001",
            "AllowedPattern" : "[a-zA-Z0-9\\-]+",
            "MaxLength" : "15",
            "MinLength" : "3"
        },
        "ACCTNetBIOSName" : {
            "Description" : "NetBIOS name of the ACCT workstaions (up to 15 characters).",
            "Type" : "String",
            "Default" : "ACCT001",
            "AllowedPattern" : "[a-zA-Z0-9\\-]+",
            "MaxLength" : "15",
            "MinLength" : "3"
        },
        "WECPrivateIP" : {
            "Description" : "Fixed private IP for the WEC server.",
            "Type" : "String",
            "Default" : "172.18.39.102",
            "AllowedPattern" : "^(([0-9]|[1-9][0-9]|1[0-9]{2}|2[0-4][0-9]|25[0-5])\\.){3}([0-9]|[1-9][0-9]|1[0-9]{2}|2[0-4][0-9]|25[0-5])$"
        },
        "HRPrivateIP" : {
            "Description" : "Fixed private IP for the HR workstation.",
            "Type" : "String",
            "Default" : "172.18.39.106",
            "AllowedPattern" : "^(([0-9]|[1-9][0-9]|1[0-9]{2}|2[0-4][0-9]|25[0-5])\\.){3}([0-9]|[1-9][0-9]|1[0-9]{2}|2[0-4][0-9]|25[0-5])$"
        },
        "ITPrivateIP" : {
            "Description" : "Fixed private IP for the IT workstation.",
            "Type" : "String",
            "Default" : "172.18.39.105",
            "AllowedPattern" : "^(([0-9]|[1-9][0-9]|1[0-9]{2}|2[0-4][0-9]|25[0-5])\\.){3}([0-9]|[1-9][0-9]|1[0-9]{2}|2[0-4][0-9]|25[0-5])$"
        },
        "ACCTPrivateIP" : {
            "Description" : "Fixed private IP for the ACCT workstation.",
            "Type" : "String",
            "Default" : "172.18.39.100",
            "AllowedPattern" : "^(([0-9]|[1-9][0-9]|1[0-9]{2}|2[0-4][0-9]|25[0-5])\\.){3}([0-9]|[1-9][0-9]|1[0-9]{2}|2[0-4][0-9]|25[0-5])$"
        },
        "LocalAdminPassword" : {
            "Description" : "Password for the Local Administrator. Must be at least 8 characters containing letters, numbers and symbols.",
            "Type" : "String",
            "Default" : "P1ls3n!",
            "AllowedPattern" : "(?=^.{6,255}$)((?=.*\\d)(?=.*[A-Z])(?=.*[a-z])|(?=.*\\d)(?=.*[^A-Za-z0-9])(?=.*[a-z])|(?=.*[^A-Za-z0-9])(?=.*[A-Z])(?=.*[a-z])|(?=.*\\d)(?=.*[A-Z])(?=.*[^A-Za-z0-9]))^.*",
            "MaxLength" : "32",
            "MinLength" : "5",
            "NoEcho" : "true"
        },
        "DomainAdminPassword" : {
            "Description" : "Password for the domain admin user. Must be at least 8 characters containing letters, numbers and symbols.",
            "Type" : "String",
            "Default" : "W1n1!2019",
            "AllowedPattern" : "(?=^.{6,255}$)((?=.*\\d)(?=.*[A-Z])(?=.*[a-z])|(?=.*\\d)(?=.*[^A-Za-z0-9])(?=.*[a-z])|(?=.*[^A-Za-z0-9])(?=.*[A-Z])(?=.*[a-z])|(?=.*\\d)(?=.*[A-Z])(?=.*[^A-Za-z0-9]))^.*",
            "MaxLength" : "32",
            "MinLength" : "5",
            "NoEcho" : "true"
        },
        "DomainAdminUser" : {
            "Description" : "User name for the account that will be added as Domain Administrator. This is separate from the default Administrator account.",
            "Type" : "String",
            "Default" : "pgustavo",
            "AllowedPattern" : "[a-zA-Z0-9]*",
            "MaxLength" : "25",
            "MinLength" : "5"
        },
        "DomainDNSName" : {
            "Description" : "Fully qualified domain name (FQDN) of the forest root domain e.g. example.com.",
            "Type" : "String",
            "Default" : "shire.com",
            "AllowedPattern" : "[a-zA-Z0-9\\-]+\\..+",
            "MaxLength" : "25",
            "MinLength" : "2"
        },
        "DomainNetBIOSName" : {
            "Description" : "NetBIOS name of the domain (up to 15 characters) for users of earlier versions of Windows e.g. EXAMPLE.",
            "Type" : "String",
            "Default" : "shire",
            "AllowedPattern" : "[a-zA-Z0-9\\-]+",
            "MaxLength" : "25",
            "MinLength" : "2"
        }
    },
    "Mappings" : {
        "WindowsWorkstationAWSRegionArch2AMI" : {
            "us-east-1" : { "HVM64" : "ami-0954cc8e05b5ab1ba"}
        },
        "WindowsServerAWSRegionArch2AMI" : {
            "us-east-1" : { "HVM64" : "ami-06a4e829b8bbad61e" },
            "us-west-1" : { "HVM64" : "ami-0069635df219ce9e5" },
            "us-west-2" : { "HVM64" : "ami-04ad37d2932b886c0" }
        }
    },
    "Resources" : {
        "WECWindowsENI" : {
            "Type" : "AWS::EC2::NetworkInterface",
            "Properties" : {
                "GroupSet": [{ "Fn::ImportValue" :  {"Fn::Sub": "${NetworkStackName}-Windows-SecurityGroupID" } }],
                "SubnetId": { "Fn::ImportValue" : {"Fn::Sub": "${NetworkStackName}-SubnetID" } },
                "PrivateIpAddress": { "Ref" : "WECPrivateIP" }
            }
        },
        "HRWindowsENI" : {
            "Type" : "AWS::EC2::NetworkInterface",
            "Properties" : {
                "GroupSet": [{ "Fn::ImportValue" :  {"Fn::Sub": "${NetworkStackName}-Windows-SecurityGroupID" } }],
                "SubnetId": { "Fn::ImportValue" : {"Fn::Sub": "${NetworkStackName}-SubnetID" } },
                "PrivateIpAddress": { "Ref" : "HRPrivateIP" }
            }
        },
        "ITWindowsENI" : {
            "Type" : "AWS::EC2::NetworkInterface",
            "Properties" : {
                "GroupSet": [{ "Fn::ImportValue" :  {"Fn::Sub": "${NetworkStackName}-Windows-SecurityGroupID" } }],
                "SubnetId": { "Fn::ImportValue" : {"Fn::Sub": "${NetworkStackName}-SubnetID" } },
                "PrivateIpAddress": { "Ref" : "ITPrivateIP" }
            }
        },
        "ACCTWindowsENI" : {
            "Type" : "AWS::EC2::NetworkInterface",
            "Properties" : {
                "GroupSet": [{ "Fn::ImportValue" :  {"Fn::Sub": "${NetworkStackName}-Windows-SecurityGroupID" } }],
                "SubnetId": { "Fn::ImportValue" : {"Fn::Sub": "${NetworkStackName}-SubnetID" } },
                "PrivateIpAddress": { "Ref" : "ACCTPrivateIP" }
            }
        },
        "WEC" : {
            "Type" : "AWS::EC2::Instance",
            "Metadata": {
                "AWS::CloudFormation::Init": {
                    "configSets": {
                        "config": [ "00-setup", "01-install", "02-finalize" ]
                    },
                    "00-setup": {
                        "files": {
                            "c:\\cfn\\cfn-hup.conf": {
                                "content": {
                                    "Fn::Join": [
                                        "",
                                        [
                                            "[main]\n",
                                            "stack=", { "Ref" : "AWS::StackId" }, "\n",
                                            "region=", { "Ref" : "AWS::Region" }, "\n"
                                        ]
                                    ]
                                }
                            },
                            "c:\\cfn\\hooks.d\\cfn-auto-reloader.conf": {
                                "content": {
                                    "Fn::Join": [
                                        "",
                                        [
                                            "[cfn-auto-reloader-hook]\n",
                                            "triggers=post.update\n",
                                            "path=Resources.WEC.Metadata.AWS::CloudFormation::Init\n",
                                            "action=cfn-init.exe -v -c config -s ", { "Ref" : "AWS::StackId" },
                                            " --r WEC",
                                            " --region ", { "Ref" : "AWS::Region" }, "\n"
                                        ]
                                    ]
                                }
                            },
                            "c:\\cfn\\scripts\\Prepare-Box.ps1": {
                                "source": "https://raw.githubusercontent.com/Cyb3rWard0g/mordor/master/environment/setup/scripts/Prepare-Box.ps1"
                            },
                            "c:\\cfn\\scripts\\Set-StaticIP.ps1": {
                                "source": "https://raw.githubusercontent.com/Cyb3rWard0g/mordor/master/environment/setup/scripts/Set-StaticIP.ps1"
                            },
                            "c:\\cfn\\scripts\\Rename-Computer.ps1": {
                                "source": "https://raw.githubusercontent.com/Cyb3rWard0g/mordor/master/environment/setup/scripts/Rename-Computer.ps1"
                            },
                            "c:\\cfn\\scripts\\Configure-WEC.ps1": {
                                "source": "https://raw.githubusercontent.com/Cyb3rWard0g/mordor/master/environment/setup/scripts/Configure-WEC.ps1"
                            },
                            "c:\\cfn\\scripts\\Join-Domain.ps1": {
                                "source": "https://raw.githubusercontent.com/Cyb3rWard0g/mordor/master/environment/setup/scripts/Join-Domain.ps1"
                            },
                            "c:\\cfn\\scripts\\Install-Winlogbeat.ps1": {
                                "source": "https://raw.githubusercontent.com/Cyb3rWard0g/mordor/master/environment/setup/scripts/Install-Winlogbeat.ps1"
                            }
                        },
                        "services": {
                            "windows": {
                                "cfn-hup": {
                                    "enabled": "true",
                                    "ensureRunning": "true",
                                    "files": [
                                        "c:\\cfn\\cfn-hup.conf",
                                        "c:\\cfn\\hooks.d\\cfn-auto-reloader.conf"
                                    ]
                                }
                            }
                        },
                        "commands": {
                            "a-set-prepare-box": {
                                "command": {
                                    "Fn::Join": [
                                        "",
                                        [
                                            "powershell.exe -ExecutionPolicy RemoteSigned -Command c:\\cfn\\scripts\\Prepare-Box.ps1",
                                            " -LocalAdminPassword ", { "Ref" : "LocalAdminPassword" }
                                        ]
                                    ]
                                },
                                "waitAfterCompletion": "0"
                            },
                            "b-set-static-ip": {
                                "command": {
                                    "Fn::Join": [
                                        "",
                                        [
                                            "powershell.exe -ExecutionPolicy RemoteSigned -Command c:\\cfn\\scripts\\Set-StaticIP.ps1",
                                            " -ServerAddresses ", { "Fn::ImportValue" : {"Fn::Sub": "${DCStackName}-DCPrivateIp" } }
                                        ]
                                    ]
                                },
                                "waitAfterCompletion": "10"
                            },
                            "d-rename-computer-reboot": {
                                "command": {
                                    "Fn::Join": [
                                        "",
                                        [
                                            "powershell.exe -ExecutionPolicy RemoteSigned -Command c:\\cfn\\scripts\\Rename-Computer.ps1",
                                            " -NewComputerName ", { "Ref" : "WECNetBIOSName" },
                                            " -reboot"
                                        ]
                                    ]
                                },
                                "waitAfterCompletion": "forever"
                            },
                            "e-join-domain": {
                                "command": {
                                    "Fn::Join": [
                                        "",
                                        [
                                            "powershell.exe -ExecutionPolicy RemoteSigned -Command c:\\cfn\\scripts\\Join-Domain.ps1",
                                            " -ComputerName ", { "Ref" : "WECNetBIOSName" },
                                            " -OU \"LogCollectors\"",
                                            " -DomainAdminUser ", { "Ref" : "DomainAdminUser" },
                                            " -DomainAdminPassword ", { "Ref" : "DomainAdminPassword" },
                                            " -DomainNetBiosName ", { "Ref" : "DomainNetBIOSName" },
                                            " -DefaultLogonUser \"Administrator\"",
                                            " -DefaultLogonPassword ", { "Ref" : "LocalAdminPassword" },
                                            " -DomainDNSName ", { "Ref" : "DomainDNSName" }  
                                        ]
                                    ]
                                },
                                "waitAfterCompletion": "forever"
                            }
                        }
                    },
                    "01-install": {
                        "commands": {
                            "a-wec-setup": {
                                "command": "powershell.exe -ExecutionPolicy RemoteSigned -Command c:\\cfn\\scripts\\Configure-WEC.ps1",
                                "waitAfterCompletion": "forever"
                            },
                            "b-install-winlogbeat": {
                                "command": "powershell.exe -ExecutionPolicy RemoteSigned -Command c:\\cfn\\scripts\\Install-Winlogbeat.ps1",
                                "waitAfterCompletion": "0"
                            }
                        }
                    },
                    "02-finalize": {
                        "commands": {
                            "a-signal-success": {
                                "command": {
                                    "Fn::Join": ["", [ "cfn-signal.exe -e %ERRORLEVEL% --resource WEC --stack ", { "Ref": "AWS::StackName" } ]]
                                },
                                "waitAfterCompletion": "0"
                            }
                        }
                    }
                }
            },
            "Properties" : {
                "InstanceType" : { "Ref" : "WECInstanceType" },
                "ImageId" : { "Fn::FindInMap" : [ "WindowsServerAWSRegionArch2AMI", { "Ref" : "AWS::Region" }, "HVM64" ] },
                "KeyName" : { "Ref" : "KeyName" },
                "NetworkInterfaces" : [
                    {
                        "NetworkInterfaceId" : { "Ref" : "WECWindowsENI" },
                        "DeviceIndex": "0"
                    }
                ],
                "BlockDeviceMappings" : [
                    {
                        "DeviceName" : "/dev/sda1",
                        "Ebs" : {
                            "DeleteOnTermination" : "true",
                            "VolumeSize" : "50"
                        }
                    }
                ],
                "UserData" : {
                    "Fn::Base64" : { 
                        "Fn::Join" : [
                            "\n", 
                            [
                                "<script>",
                                "wmic product where \"description='aws-cfn-bootstrap' \" uninstall ",
                                "start /wait c:\\Windows\\system32\\msiexec /passive /qn /i https://s3.amazonaws.com/cloudformation-examples/aws-cfn-bootstrap-win64-latest.msi",
                                { "Fn::Sub" : "cfn-init.exe -v -c config -s ${AWS::StackName} --resource WEC --region ${AWS::Region} " },
                                "</script>"
                            ]
                        ]
                    }
                }
            },
            "CreationPolicy": {
                "ResourceSignal": {
                    "Count": "1",
                    "Timeout": "PT20M"
                }
            }
        },
        "HRWKS" : {
            "Type" : "AWS::EC2::Instance",
            "Metadata": {
                "AWS::CloudFormation::Init": {
                    "configSets": {
                        "config": [ "00-setup", "01-install", "02-finalize" ]
                    },
                    "00-setup": {
                        "files": {
                            "c:\\cfn\\cfn-hup.conf": {
                                "content": {
                                    "Fn::Join": [
                                        "",
                                        [
                                            "[main]\n",
                                            "stack=", { "Ref" : "AWS::StackId" }, "\n",
                                            "region=", { "Ref" : "AWS::Region" }, "\n"
                                        ]
                                    ]
                                }
                            },
                            "c:\\cfn\\hooks.d\\cfn-auto-reloader.conf": {
                                "content": {
                                    "Fn::Join": [
                                        "",
                                        [
                                            "[cfn-auto-reloader-hook]\n",
                                            "triggers=post.update\n",
                                            "path=Resources.HRWKS.Metadata.AWS::CloudFormation::Init\n",
                                            "action=cfn-init.exe -v -c config -s ", { "Ref" : "AWS::StackId" },
                                            " --r HRWKS",
                                            " --region ", { "Ref" : "AWS::Region" }, "\n"
                                        ]
                                    ]
                                }
                            },
                            "c:\\cfn\\scripts\\Prepare-Box.ps1": {
                                "source": "https://raw.githubusercontent.com/Cyb3rWard0g/mordor/master/environment/setup/scripts/Prepare-Box.ps1"
                            },
                            "c:\\cfn\\scripts\\Set-StaticIP.ps1": {
                                "source": "https://raw.githubusercontent.com/Cyb3rWard0g/mordor/master/environment/setup/scripts/Set-StaticIP.ps1"
                            },
                            "c:\\cfn\\scripts\\Rename-Computer.ps1": {
                                "source": "https://raw.githubusercontent.com/Cyb3rWard0g/mordor/master/environment/setup/scripts/Rename-Computer.ps1"
                            },
                            "c:\\cfn\\scripts\\Install-Sysmon.ps1": {
                                "source": "https://raw.githubusercontent.com/Cyb3rWard0g/mordor/master/environment/setup/scripts/Install-Sysmon.ps1"
                            },
                            "c:\\cfn\\scripts\\Join-Domain.ps1": {
                                "source": "https://raw.githubusercontent.com/Cyb3rWard0g/mordor/master/environment/setup/scripts/Join-Domain.ps1"
                            }
                        },
                        "services": {
                            "windows": {
                                "cfn-hup": {
                                    "enabled": "true",
                                    "ensureRunning": "true",
                                    "files": [
                                        "c:\\cfn\\cfn-hup.conf",
                                        "c:\\cfn\\hooks.d\\cfn-auto-reloader.conf"
                                    ]
                                }
                            }
                        },
                        "commands": {
                            "a-set-prepare-box": {
                                "command": {
                                    "Fn::Join": [
                                        "",
                                        [
                                            "powershell.exe -ExecutionPolicy RemoteSigned -Command c:\\cfn\\scripts\\Prepare-Box.ps1",
                                            " -LocalAdminPassword ", { "Ref" : "LocalAdminPassword" }
                                        ]
                                    ]
                                },
                                "waitAfterCompletion": "0"
                            },
                            "b-set-static-ip": {
                                "command": {
                                    "Fn::Join": [
                                        "",
                                        [
                                            "powershell.exe -ExecutionPolicy RemoteSigned -Command c:\\cfn\\scripts\\Set-StaticIP.ps1",
                                            " -ServerAddresses ", { "Fn::ImportValue" : {"Fn::Sub": "${DCStackName}-DCPrivateIp" } }
                                        ]
                                    ]
                                },
                                "waitAfterCompletion": "10"
                            },
                            "c-rename-computer-reboot": {
                                "command": {
                                    "Fn::Join": [
                                        "",
                                        [
                                            "powershell.exe -ExecutionPolicy RemoteSigned -Command c:\\cfn\\scripts\\Rename-Computer.ps1",
                                            " -NewComputerName ", { "Ref" : "HRNetBIOSName" },
                                            " -reboot"
                                        ]
                                    ]
                                },
                                "waitAfterCompletion": "forever"
                            },
                            "d-join-domain": {
                                "command": {
                                    "Fn::Join": [
                                        "",
                                        [
                                            "powershell.exe -ExecutionPolicy RemoteSigned -Command c:\\cfn\\scripts\\Join-Domain.ps1",
                                            " -ComputerName ", { "Ref" : "HRNetBIOSName" },
                                            " -OU \"Workstations\"",
                                            " -DomainAdminUser ", { "Ref" : "DomainAdminUser" },
                                            " -DomainAdminPassword ", { "Ref" : "DomainAdminPassword" },
                                            " -DomainNetBiosName ", { "Ref" : "DomainNetBIOSName" },
                                            " -DefaultLogonUser \"Administrator\"",
                                            " -DefaultLogonPassword ", { "Ref" : "LocalAdminPassword" },
                                            " -DomainDNSName ", { "Ref" : "DomainDNSName" }  
                                        ]
                                    ]
                                },
                                "waitAfterCompletion": "forever"
                            }
                        }
                    },
                    "01-install": {
                        "commands": {
                            "a-install-sysmon": {
                                "command": "powershell.exe -ExecutionPolicy RemoteSigned -Command c:\\cfn\\scripts\\Install-Sysmon.ps1",
                                "waitAfterCompletion": "0"
                            }
                        }
                    },
                    "02-finalize": {
                        "commands": {
                            "a-signal-success": {
                                "command": {
                                    "Fn::Join": ["", [ "cfn-signal.exe -e %ERRORLEVEL% --resource HRWKS --stack ", { "Ref": "AWS::StackName" } ]]
                                },
                                "waitAfterCompletion": "0"
                            }
                        }
                    }
                }
            },
            "Properties" : {
                "InstanceType" : { "Ref" : "WorkstationInstanceType" },
                "ImageId" : { "Fn::FindInMap" : [ "WindowsWorkstationAWSRegionArch2AMI", { "Ref" : "AWS::Region" }, "HVM64" ] },
                "KeyName" : { "Ref" : "KeyName" },
                "NetworkInterfaces" : [
                    {
                        "NetworkInterfaceId" : { "Ref" : "HRWindowsENI" },
                        "DeviceIndex": "0"
                    }
                ],
                "BlockDeviceMappings" : [
                    {
                        "DeviceName" : "/dev/sda1",
                        "Ebs" : {
                            "DeleteOnTermination" : "true",
                            "VolumeSize" : "50"
                        }
                    }
                ],
                "UserData" : {
                    "Fn::Base64" : { 
                        "Fn::Join" : [
                            "\n", 
                            [
                                "<script>",
                                "wmic product where \"description='aws-cfn-bootstrap' \" uninstall ",
                                "start /wait c:\\Windows\\system32\\msiexec /passive /qn /i https://s3.amazonaws.com/cloudformation-examples/aws-cfn-bootstrap-win64-latest.msi",
                                { "Fn::Sub" : "\"c:\\Program Files\\Amazon\\cfn-bootstrap\\cfn-init.exe\" -v -c config -s ${AWS::StackName} --resource HRWKS --region ${AWS::Region} " },
                                "</script>"
                            ]
                        ]
                    }
                }
            },
            "CreationPolicy": {
                "ResourceSignal": {
                    "Count": "1",
                    "Timeout": "PT20M"
                }
            }
        },
        "ITWKS" : {
            "Type" : "AWS::EC2::Instance",
            "Metadata": {
                "AWS::CloudFormation::Init": {
                    "configSets": {
                        "config": [ "00-setup", "01-install", "02-finalize" ]
                    },
                    "00-setup": {
                        "files": {
                            "c:\\cfn\\cfn-hup.conf": {
                                "content": {
                                    "Fn::Join": [
                                        "",
                                        [
                                            "[main]\n",
                                            "stack=", { "Ref" : "AWS::StackId" }, "\n",
                                            "region=", { "Ref" : "AWS::Region" }, "\n"
                                        ]
                                    ]
                                }
                            },
                            "c:\\cfn\\hooks.d\\cfn-auto-reloader.conf": {
                                "content": {
                                    "Fn::Join": [
                                        "",
                                        [
                                            "[cfn-auto-reloader-hook]\n",
                                            "triggers=post.update\n",
                                            "path=Resources.ITWKS.Metadata.AWS::CloudFormation::Init\n",
                                            "action=cfn-init.exe -v -c config -s ", { "Ref" : "AWS::StackId" },
                                            " --r ITWKS",
                                            " --region ", { "Ref" : "AWS::Region" }, "\n"
                                        ]
                                    ]
                                }
                            },
                            "c:\\cfn\\scripts\\Prepare-Box.ps1": {
                                "source": "https://raw.githubusercontent.com/Cyb3rWard0g/mordor/master/environment/setup/scripts/Prepare-Box.ps1"
                            },
                            "c:\\cfn\\scripts\\Set-StaticIP.ps1": {
                                "source": "https://raw.githubusercontent.com/Cyb3rWard0g/mordor/master/environment/setup/scripts/Set-StaticIP.ps1"
                            },
                            "c:\\cfn\\scripts\\Rename-Computer.ps1": {
                                "source": "https://raw.githubusercontent.com/Cyb3rWard0g/mordor/master/environment/setup/scripts/Rename-Computer.ps1"
                            },
                            "c:\\cfn\\scripts\\Install-Sysmon.ps1": {
                                "source": "https://raw.githubusercontent.com/Cyb3rWard0g/mordor/master/environment/setup/scripts/Install-Sysmon.ps1"
                            },
                            "c:\\cfn\\scripts\\Join-Domain.ps1": {
                                "source": "https://raw.githubusercontent.com/Cyb3rWard0g/mordor/master/environment/setup/scripts/Join-Domain.ps1"
                            }
                        },
                        "services": {
                            "windows": {
                                "cfn-hup": {
                                    "enabled": "true",
                                    "ensureRunning": "true",
                                    "files": [
                                        "c:\\cfn\\cfn-hup.conf",
                                        "c:\\cfn\\hooks.d\\cfn-auto-reloader.conf"
                                    ]
                                }
                            }
                        },
                        "commands": {
                            "a-set-prepare-box": {
                                "command": {
                                    "Fn::Join": [
                                        "",
                                        [
                                            "powershell.exe -ExecutionPolicy RemoteSigned -Command c:\\cfn\\scripts\\Prepare-Box.ps1",
                                            " -LocalAdminPassword ", { "Ref" : "LocalAdminPassword" }
                                        ]
                                    ]
                                },
                                "waitAfterCompletion": "0"
                            },
                            "b-set-static-ip": {
                                "command": {
                                    "Fn::Join": [
                                        "",
                                        [
                                            "powershell.exe -ExecutionPolicy RemoteSigned -Command c:\\cfn\\scripts\\Set-StaticIP.ps1",
                                            " -ServerAddresses ", { "Fn::ImportValue" : {"Fn::Sub": "${DCStackName}-DCPrivateIp" } }
                                        ]
                                    ]
                                },
                                "waitAfterCompletion": "10"
                            },
                            "c-rename-computer-reboot": {
                                "command": {
                                    "Fn::Join": [
                                        "",
                                        [
                                            "powershell.exe -ExecutionPolicy RemoteSigned -Command c:\\cfn\\scripts\\Rename-Computer.ps1",
                                            " -NewComputerName ", { "Ref" : "ITNetBIOSName" },
                                            " -reboot"
                                        ]
                                    ]
                                },
                                "waitAfterCompletion": "forever"
                            },
                            "d-join-domain": {
                                "command": {
                                    "Fn::Join": [
                                        "",
                                        [
                                            "powershell.exe -ExecutionPolicy RemoteSigned -Command c:\\cfn\\scripts\\Join-Domain.ps1",
                                            " -ComputerName ", { "Ref" : "ITNetBIOSName" },
                                            " -OU \"Workstations\"",
                                            " -DomainAdminUser ", { "Ref" : "DomainAdminUser" },
                                            " -DomainAdminPassword ", { "Ref" : "DomainAdminPassword" },
                                            " -DomainNetBiosName ", { "Ref" : "DomainNetBIOSName" },
                                            " -DefaultLogonUser \"Administrator\"",
                                            " -DefaultLogonPassword ", { "Ref" : "LocalAdminPassword" },
                                            " -DomainDNSName ", { "Ref" : "DomainDNSName" }  
                                        ]
                                    ]
                                },
                                "waitAfterCompletion": "forever"
                            }
                        }
                    },
                    "01-install": {
                        "commands": {
                            "a-install-sysmon": {
                                "command": "powershell.exe -ExecutionPolicy RemoteSigned -Command c:\\cfn\\scripts\\Install-Sysmon.ps1",
                                "waitAfterCompletion": "0"
                            }
                        }
                    },
                    "02-finalize": {
                        "commands": {
                            "a-signal-success": {
                                "command": {
                                    "Fn::Join": ["", [ "cfn-signal.exe -e %ERRORLEVEL% --resource ITWKS --stack ", { "Ref": "AWS::StackName" } ]]
                                },
                                "waitAfterCompletion": "0"
                            }
                        }
                    }
                }
            },
            "Properties" : {
                "InstanceType" : { "Ref" : "WorkstationInstanceType" },
                "ImageId" : { "Fn::FindInMap" : [ "WindowsWorkstationAWSRegionArch2AMI", { "Ref" : "AWS::Region" }, "HVM64" ] },
                "KeyName" : { "Ref" : "KeyName" },
                "NetworkInterfaces" : [
                    {
                        "NetworkInterfaceId" : { "Ref" : "ITWindowsENI" },
                        "DeviceIndex": "0"
                    }
                ],
                "BlockDeviceMappings" : [
                    {
                        "DeviceName" : "/dev/sda1",
                        "Ebs" : {
                            "DeleteOnTermination" : "true",
                            "VolumeSize" : "50"
                        }
                    }
                ],
                "UserData" : {
                    "Fn::Base64" : { 
                        "Fn::Join" : [
                            "\n", 
                            [
                                "<script>",
                                "wmic product where \"description='aws-cfn-bootstrap' \" uninstall ",
                                "start /wait c:\\Windows\\system32\\msiexec /passive /qn /i https://s3.amazonaws.com/cloudformation-examples/aws-cfn-bootstrap-win64-latest.msi",
                                { "Fn::Sub" : "\"c:\\Program Files\\Amazon\\cfn-bootstrap\\cfn-init.exe\" -v -c config -s ${AWS::StackName} --resource ITWKS --region ${AWS::Region} " },
                                "</script>"
                            ]
                        ]
                    }
                }
            },
            "CreationPolicy": {
                "ResourceSignal": {
                    "Count": "1",
                    "Timeout": "PT20M"
                }
            }
        },
        "ACCTWKS" : {
            "Type" : "AWS::EC2::Instance",
            "Metadata": {
                "AWS::CloudFormation::Init": {
                    "configSets": {
                        "config": [ "00-setup", "01-install", "02-finalize" ]
                    },
                    "00-setup": {
                        "files": {
                            "c:\\cfn\\cfn-hup.conf": {
                                "content": {
                                    "Fn::Join": [
                                        "",
                                        [
                                            "[main]\n",
                                            "stack=", { "Ref" : "AWS::StackId" }, "\n",
                                            "region=", { "Ref" : "AWS::Region" }, "\n"
                                        ]
                                    ]
                                }
                            },
                            "c:\\cfn\\hooks.d\\cfn-auto-reloader.conf": {
                                "content": {
                                    "Fn::Join": [
                                        "",
                                        [
                                            "[cfn-auto-reloader-hook]\n",
                                            "triggers=post.update\n",
                                            "path=Resources.ACCTWKS.Metadata.AWS::CloudFormation::Init\n",
                                            "action=cfn-init.exe -v -c config -s ", { "Ref" : "AWS::StackId" },
                                            " --r ACCTWKS",
                                            " --region ", { "Ref" : "AWS::Region" }, "\n"
                                        ]
                                    ]
                                }
                            },
                            "c:\\cfn\\scripts\\Prepare-Box.ps1": {
                                "source": "https://raw.githubusercontent.com/Cyb3rWard0g/mordor/master/environment/setup/scripts/Prepare-Box.ps1"
                            },
                            "c:\\cfn\\scripts\\Set-StaticIP.ps1": {
                                "source": "https://raw.githubusercontent.com/Cyb3rWard0g/mordor/master/environment/setup/scripts/Set-StaticIP.ps1"
                            },
                            "c:\\cfn\\scripts\\Rename-Computer.ps1": {
                                "source": "https://raw.githubusercontent.com/Cyb3rWard0g/mordor/master/environment/setup/scripts/Rename-Computer.ps1"
                            },
                            "c:\\cfn\\scripts\\Install-Sysmon.ps1": {
                                "source": "https://raw.githubusercontent.com/Cyb3rWard0g/mordor/master/environment/setup/scripts/Install-Sysmon.ps1"
                            },
                            "c:\\cfn\\scripts\\Join-Domain.ps1": {
                                "source": "https://raw.githubusercontent.com/Cyb3rWard0g/mordor/master/environment/setup/scripts/Join-Domain.ps1"
                            }
                        },
                        "services": {
                            "windows": {
                                "cfn-hup": {
                                    "enabled": "true",
                                    "ensureRunning": "true",
                                    "files": [
                                        "c:\\cfn\\cfn-hup.conf",
                                        "c:\\cfn\\hooks.d\\cfn-auto-reloader.conf"
                                    ]
                                }
                            }
                        },
                        "commands": {
                            "a-set-prepare-box": {
                                "command": {
                                    "Fn::Join": [
                                        "",
                                        [
                                            "powershell.exe -ExecutionPolicy RemoteSigned -Command c:\\cfn\\scripts\\Prepare-Box.ps1",
                                            " -LocalAdminPassword ", { "Ref" : "LocalAdminPassword" }
                                        ]
                                    ]
                                },
                                "waitAfterCompletion": "0"
                            },
                            "b-set-static-ip": {
                                "command": {
                                    "Fn::Join": [
                                        "",
                                        [
                                            "powershell.exe -ExecutionPolicy RemoteSigned -Command c:\\cfn\\scripts\\Set-StaticIP.ps1",
                                            " -ServerAddresses ", { "Fn::ImportValue" : {"Fn::Sub": "${DCStackName}-DCPrivateIp" } }
                                        ]
                                    ]
                                },
                                "waitAfterCompletion": "10"
                            },
                            "c-rename-computer-reboot": {
                                "command": {
                                    "Fn::Join": [
                                        "",
                                        [
                                            "powershell.exe -ExecutionPolicy RemoteSigned -Command c:\\cfn\\scripts\\Rename-Computer.ps1",
                                            " -NewComputerName ", { "Ref" : "ACCTNetBIOSName" },
                                            " -reboot"
                                        ]
                                    ]
                                },
                                "waitAfterCompletion": "forever"
                            },
                            "d-join-domain": {
                                "command": {
                                    "Fn::Join": [
                                        "",
                                        [
                                            "powershell.exe -ExecutionPolicy RemoteSigned -Command c:\\cfn\\scripts\\Join-Domain.ps1",
                                            " -ComputerName ", { "Ref" : "ACCTNetBIOSName" },
                                            " -OU \"Workstations\"",
                                            " -DomainAdminUser ", { "Ref" : "DomainAdminUser" },
                                            " -DomainAdminPassword ", { "Ref" : "DomainAdminPassword" },
                                            " -DomainNetBiosName ", { "Ref" : "DomainNetBIOSName" },
                                            " -DefaultLogonUser \"Administrator\"",
                                            " -DefaultLogonPassword ", { "Ref" : "LocalAdminPassword" },
                                            " -DomainDNSName ", { "Ref" : "DomainDNSName" }  
                                        ]
                                    ]
                                },
                                "waitAfterCompletion": "forever"
                            }
                        }
                    },
                    "01-install": {
                        "commands": {
                            "a-install-sysmon": {
                                "command": "powershell.exe -ExecutionPolicy RemoteSigned -Command c:\\cfn\\scripts\\Install-Sysmon.ps1",
                                "waitAfterCompletion": "0"
                            }
                        }
                    },
                    "02-finalize": {
                        "commands": {
                            "a-signal-success": {
                                "command": {
                                    "Fn::Join": ["", [ "cfn-signal.exe -e %ERRORLEVEL% --resource ACCTWKS --stack ", { "Ref": "AWS::StackName" } ]]
                                },
                                "waitAfterCompletion": "0"
                            }
                        }
                    }
                }
            },
            "Properties" : {
                "InstanceType" : { "Ref" : "WorkstationInstanceType" },
                "ImageId" : { "Fn::FindInMap" : [ "WindowsWorkstationAWSRegionArch2AMI", { "Ref" : "AWS::Region" }, "HVM64" ] },
                "KeyName" : { "Ref" : "KeyName" },
                "NetworkInterfaces" : [
                    {
                        "NetworkInterfaceId" : { "Ref" : "ACCTWindowsENI" },
                        "DeviceIndex": "0"
                    }
                ],
                "BlockDeviceMappings" : [
                    {
                        "DeviceName" : "/dev/sda1",
                        "Ebs" : {
                            "DeleteOnTermination" : "true",
                            "VolumeSize" : "50"
                        }
                    }
                ],
                "UserData" : {
                    "Fn::Base64" : { 
                        "Fn::Join" : [
                            "\n", 
                            [
                                "<script>",
                                "wmic product where \"description='aws-cfn-bootstrap' \" uninstall ",
                                "start /wait c:\\Windows\\system32\\msiexec /passive /qn /i https://s3.amazonaws.com/cloudformation-examples/aws-cfn-bootstrap-win64-latest.msi",
                                { "Fn::Sub" : "\"c:\\Program Files\\Amazon\\cfn-bootstrap\\cfn-init.exe\" -v -c config -s ${AWS::StackName} --resource ACCTWKS --region ${AWS::Region} " },
                                "</script>"
                            ]
                        ]
                    }
                }
            },
            "CreationPolicy": {
                "ResourceSignal": {
                    "Count": "1",
                    "Timeout": "PT20M"
                }
            }
        }
    },
    "Outputs" : {
        "WECPublicIPAddress" : {
            "Description" : "Public IP address of the new EC2 instance",
            "Value" : { "Fn::GetAtt" : [ "WEC", "PublicIp" ] }
        },
        "HRPublicIPAddress" : {
            "Description" : "Public IP address of the new HR EC2 instance",
            "Value" : { "Fn::GetAtt" : [ "HRWKS", "PublicIp" ] }
        },
        "ITPublicIPAddress" : {
            "Description" : "Public IP address of the new IT EC2 instance",
            "Value" : { "Fn::GetAtt" : [ "ITWKS", "PublicIp" ] }
        },
        "ACCTPublicIPAddress" : {
            "Description" : "Public IP address of the new ACCT EC2 instance",
            "Value" : { "Fn::GetAtt" : [ "ACCTWKS", "PublicIp" ] }
        }
    }
}